; Engine configuration file.
; It's best edited using the editor UI and not directly,
; since the parameters that go here are not all obvious.
;
; Format:
;   [section] ; section goes between []
;   param=value ; assign values to parameters

config_version=4

_global_script_classes=[ {
"base": "Node",
"class": "Casette",
"language": "GDScript",
"path": "res://code/Casette.gd"
}, {
"base": "Button",
"class": "CasetteButton",
"language": "GDScript",
"path": "res://scenes/casetteButton/casetteButton.gd"
}, {
"base": "Node",
"class": "Clip",
"language": "GDScript",
"path": "res://code/Clip.gd"
} ]
_global_script_class_icons={
"Casette": "",
"CasetteButton": "",
"Clip": ""
}

[application]

config/name="GGJ2020"
run/main_scene="res://scenes/start/boot.tscn"
config/icon="res://assets/icon.png"

[autoload]

Global="*res://code/autoload/Global.gd"

[display]

window/stretch/mode="2d"
window/stretch/aspect="keep"

[importer_defaults]

texture={
"compress/bptc_ldr": 0,
"compress/hdr_mode": 0,
"compress/lossy_quality": 0.7,
"compress/mode": 0,
"compress/normal_map": 0,
"detect_3d": false,
"flags/anisotropic": false,
"flags/filter": false,
"flags/mipmaps": false,
"flags/repeat": 0,
"flags/srgb": 2,
"process/HDR_as_SRGB": false,
"process/fix_alpha_border": true,
"process/invert_color": false,
"process/premult_alpha": false,
"size_limit": 0,
"stream": false,
"svg/scale": 1.0
}

[rendering]

quality/driver/driver_name="GLES2"
vram_compression/import_etc=true
vram_compression/import_etc2=false
